trans;
	if: $action = main;
	parameters: [
		print;
			^@,
			[action: format; main: #100; dec: true; ], { },
			[action: format; main: #100; hex: true; ], { },
			[action: format; main: #100; oct: true; ],
			^!;
	];

